# This file uses centimeters as units for non-parametric coordinates.

mtllib Axxe2LowPoly.mtl
g default
v -1.534573 7.133040 -1.441200
v -1.313255 7.117438 -1.434313
v -1.233388 7.335665 -1.439885
v -1.131589 7.413475 -1.438602
v -1.025207 7.460672 -1.434297
v -0.916550 7.474512 -1.406377
v -0.807294 7.469052 -1.332062
v -0.692998 7.399525 -1.274013
v -0.593395 7.398956 -1.250855
v -0.492685 7.397400 -1.262344
v -0.392662 7.395052 -1.302199
v -1.621799 7.445257 -1.459405
v -1.417911 7.419734 -1.452903
v -1.273662 7.484664 -1.451015
v -1.149111 7.519631 -1.445706
v -1.035801 7.542143 -1.438962
v -0.924876 7.547240 -1.407426
v -0.814058 7.538432 -1.321505
v -0.705167 7.504287 -1.249164
v -0.604797 7.499955 -1.223297
v -0.505012 7.498557 -1.236780
v -0.404954 7.496252 -1.281936
v -1.646622 7.684045 -1.476132
v -1.461416 7.626683 -1.469986
v -1.304986 7.621029 -1.462864
v -1.169973 7.623769 -1.454071
v -1.049546 7.627863 -1.445765
v -0.934284 7.627727 -1.418989
v -0.822095 7.621603 -1.334902
v -0.716034 7.605611 -1.250726
v -0.615604 7.600082 -1.224929
v -0.515819 7.598843 -1.238844
v -0.415164 7.596665 -1.284605
v -1.613972 7.853165 -1.486597
v -1.457704 7.779666 -1.481195
v -1.313538 7.746445 -1.472727
v -1.182010 7.728692 -1.462556
v -1.059472 7.720196 -1.452024
v -0.942560 7.715066 -1.434292
v -0.830888 7.711832 -1.365969
v -0.726289 7.701122 -1.284135
v -0.626153 7.699246 -1.258600
v -0.526391 7.698218 -1.270873
v -0.426376 7.696339 -1.312243
v -1.539415 7.971789 -1.491876
v -1.426255 7.898607 -1.487328
v -1.306097 7.859754 -1.479303
v -1.183821 7.831138 -1.468611
v -1.063969 7.813655 -1.457087
v -0.948746 7.803672 -1.446275
v -0.839813 7.796017 -1.407863
v -0.736985 7.796999 -1.357125
v -0.637363 7.797175 -1.332862
v -0.536640 7.796412 -1.340682
v -0.436716 7.794898 -1.374446
v -1.471683 6.807414 -1.423702
v -1.294909 6.841802 -1.421552
v -1.450261 6.508814 -1.406986
v -1.161246 6.636821 -1.409209
v -1.780445 7.185772 -1.447444
v -1.848983 7.549293 -1.464671
v -1.835343 7.818044 -1.478045
v -1.786006 8.008888 -1.485183
v -1.719116 8.118146 -1.488185
v -1.685327 6.755893 -1.423688
v -1.675932 6.431801 -1.410469
v -2.033904 7.367560 -1.453979
v -2.049948 7.893729 -1.467366
v -2.013248 8.009706 -1.470166
v -1.969683 8.213037 -1.469141
v -1.938041 8.339706 -1.465269
v -1.951628 6.937731 -1.491870
v -2.021513 6.904034 -1.490321
v -2.229352 7.579342 -1.506640
v -2.237678 7.897663 -1.510203
v -2.192505 8.185361 -1.512334
v -2.158562 8.363284 -1.512825
v -2.114344 8.545141 -1.573675
v -2.120326 7.008323 -1.492938
v -0.088301 7.389960 -1.441613
v -0.091814 7.490272 -1.445898
v -0.097796 7.590758 -1.449627
v -0.106440 7.691415 -1.452832
v -0.112300 7.791824 -1.453945
v -2.032052 6.819969 -1.487365
v -1.930417 6.862595 -1.489324
v -1.711745 6.876177 -1.430932
v -1.496671 6.941158 -1.431119
v -1.306526 6.998356 -1.428718
v -1.311672 7.114408 -1.523957
v -1.232726 7.332820 -1.524315
v -1.130439 7.410855 -1.520487
v -1.024912 7.458114 -1.515693
v -0.915805 7.471419 -1.510310
v -0.804355 7.464092 -1.504951
v -0.688570 7.393190 -1.498322
v -0.389482 7.389707 -1.495291
v -1.427759 7.896104 -1.544780
v -1.538805 7.969380 -1.549708
v -1.307653 7.857311 -1.539776
v -1.187261 7.828557 -1.534264
v -1.068715 7.811013 -1.528339
v -0.955266 7.801008 -1.522227
v -0.849927 7.792486 -1.516701
v -0.751383 7.792260 -1.513026
v -0.653177 7.792068 -1.510597
v -0.551345 7.791844 -1.509451
v -0.448899 7.791523 -1.509204
v -1.305561 6.995145 -1.521239
v -1.292686 6.838611 -1.517149
v -1.448751 6.504923 -1.517381
v -1.160277 6.633582 -1.505687
v -1.718813 8.115137 -1.558397
v -1.914919 6.160322 -1.518897
v -1.937098 8.335421 -1.573294
v -2.197984 6.935010 -1.548688
v -2.278196 6.816957 -1.552462
v -2.484284 7.894344 -1.580442
v -2.475740 7.576145 -1.572770
v -2.439390 8.181985 -1.586023
v -2.405629 8.359831 -1.589560
v -2.174847 8.649271 -1.592948
v -2.366469 7.005214 -1.558050
v -0.088473 7.389051 -1.491640
v -0.097364 7.489768 -1.497166
v -0.103057 7.590202 -1.501177
v -0.108587 7.690590 -1.504222
v -0.115575 7.791054 -1.505360
v -2.176751 6.859878 -1.546958
v -2.267735 6.901113 -1.552301
v -1.522462 7.127202 -1.638119
v -1.302187 7.111928 -1.622295
v -1.406614 7.414693 -1.623253
v -1.608950 7.440026 -1.636213
v -1.223484 7.330501 -1.614659
v -1.262835 7.479937 -1.612744
v -1.121732 7.408565 -1.606836
v -1.138839 7.514982 -1.605641
v -1.016796 7.455822 -1.599789
v -1.027334 7.537418 -1.599841
v -0.908895 7.468277 -1.621012
v -0.916181 7.540899 -1.626187
v -0.799567 7.458789 -1.688585
v -0.806996 7.527328 -1.704741
v -0.686482 7.386544 -1.728549
v -0.698642 7.489501 -1.762508
v -0.586546 7.384937 -1.741557
v -0.598891 7.483969 -1.778402
v -0.487497 7.384231 -1.723439
v -0.499822 7.483502 -1.759330
v -0.388278 7.384294 -1.678506
v -0.399245 7.483887 -1.709167
v -1.449801 7.622337 -1.616507
v -1.633341 7.679597 -1.627472
v -1.293216 7.616816 -1.609204
v -1.159822 7.619379 -1.604273
v -1.040332 7.623354 -1.599995
v -0.926575 7.621869 -1.618797
v -0.814051 7.611156 -1.694204
v -0.708686 7.590727 -1.763647
v -0.609757 7.583979 -1.779723
v -0.510081 7.583669 -1.760978
v -0.410817 7.584248 -1.711889
v -1.446154 7.775809 -1.610626
v -1.601227 7.849199 -1.619680
v -1.303079 7.742479 -1.605861
v -1.170789 7.724646 -1.602898
v -1.050210 7.715846 -1.600228
v -0.933965 7.710024 -1.606470
v -0.823513 7.703059 -1.665228
v -0.719379 7.688031 -1.731665
v -0.620416 7.684961 -1.746654
v -0.520472 7.684754 -1.729985
v -0.421231 7.685329 -1.686891
v -1.414363 7.895086 -1.607029
v -1.526809 7.968195 -1.613466
v -1.294448 7.856132 -1.604270
v -1.173349 7.827209 -1.602749
v -1.053688 7.809473 -1.600990
v -0.941132 7.799158 -1.598386
v -0.832786 7.789582 -1.625375
v -0.730760 7.787988 -1.661977
v -0.631775 7.787055 -1.675077
v -0.531751 7.786911 -1.661505
v -0.432589 7.787361 -1.628764
v -1.483870 6.935118 -1.638492
v -1.296261 6.992565 -1.623112
v -1.460161 6.800963 -1.639337
v -1.284806 6.835743 -1.623561
v -1.438965 6.501723 -1.642080
v -1.152301 6.630690 -1.612054
v -1.834371 7.543697 -1.654012
v -1.766396 7.179584 -1.656162
v -1.820854 7.813075 -1.645622
v -1.771931 8.004254 -1.640383
v -1.705588 8.113701 -1.636171
v -1.697896 6.869459 -1.658244
v -1.670835 6.749043 -1.659518
v -1.662789 6.427094 -1.626429
v -2.033747 7.887372 -1.681457
v -2.017835 7.360922 -1.678129
v -1.997347 8.003493 -1.678756
v -1.954138 8.206574 -1.684502
v -1.922755 8.332860 -1.692398
v -1.936232 6.933681 -1.629700
v -2.015996 6.815489 -1.637556
v -2.219942 7.893364 -1.656876
v -2.211684 7.575247 -1.647615
v -2.175138 8.180830 -1.665146
v -2.141472 8.358486 -1.672839
v -2.119336 8.542319 -1.613078
v -2.103550 7.004020 -1.639763
v -0.086832 7.387337 -1.531263
v -0.092253 7.487798 -1.535839
v -0.098559 7.588293 -1.539603
v -0.104984 7.688761 -1.542437
v -0.110931 7.789160 -1.543425
v -1.915193 6.858455 -1.629786
v -2.005544 6.899752 -1.634724
v -0.646397 7.397452 -1.328054
v -0.646259 7.392701 -1.496988
v -0.571590 7.396925 -1.310654
v -0.496660 7.395680 -1.319376
v -0.421623 7.389935 -1.494698
v -0.421534 7.393838 -1.349303
v -0.641475 7.387760 -1.669449
v -0.567131 7.386460 -1.679312
v -0.492739 7.385843 -1.665699
v -0.418221 7.385797 -1.631943
v -0.485424 6.134145 -1.304611
v -0.484389 6.130158 -1.473485
v -0.410726 6.131118 -1.286999
v -0.335850 6.127486 -1.295512
v -0.259969 6.120085 -1.470562
v -0.260733 6.123348 -1.325232
v -0.479246 6.125865 -1.645953
v -0.404953 6.122195 -1.655607
v -0.330663 6.119097 -1.641783
v -0.256288 6.116475 -1.607813
v -0.356091 4.603220 -1.285181
v -0.355000 4.600425 -1.454155
v -0.281722 4.596336 -1.267265
v -0.207082 4.589026 -1.275479
v -0.131377 4.579145 -1.450329
v -0.132126 4.581347 -1.304900
v -0.349264 4.597101 -1.626626
v -0.275203 4.589797 -1.635984
v -0.201225 4.582899 -1.621860
v -0.127234 4.576326 -1.587586
v -0.411358 2.897123 -1.293033
v -0.409643 2.895421 -1.462018
v -0.337482 2.886586 -1.274857
v -0.263237 2.875787 -1.282811
v -0.187305 2.863496 -1.457410
v -0.188600 2.864749 -1.311974
v -0.403298 2.892993 -1.634482
v -0.329627 2.882235 -1.643582
v -0.256125 2.871727 -1.629199
v -0.182685 2.861410 -1.594664
v -1.668480 6.438355 -1.514233
v -0.333621 2.884448 -1.456088
v -0.259736 2.873789 -1.453342
vt 0.756707 0.323572
vt 0.773219 0.400427
vt 0.722523 0.392510
vt 0.701384 0.315461
vt 0.686851 0.408296
vt 0.676892 0.369785
vt 0.656001 0.418424
vt 0.650585 0.391927
vt 0.628300 0.426324
vt 0.622672 0.405167
vt 0.599906 0.431445
vt 0.593516 0.412677
vt 0.567489 0.436688
vt 0.561443 0.420284
vt 0.537096 0.438495
vt 0.526537 0.418028
vt 0.514125 0.443948
vt 0.503813 0.422620
vt 0.491715 0.449666
vt 0.480089 0.428025
vt 0.466836 0.456843
vt 0.454367 0.434977
vt 0.778144 0.459467
vt 0.733487 0.444457
vt 0.695360 0.442799
vt 0.663004 0.444619
vt 0.634156 0.448322
vt 0.606706 0.452365
vt 0.575093 0.456125
vt 0.545827 0.458594
vt 0.523236 0.463544
vt 0.501060 0.470197
vt 0.477015 0.478635
vt 0.770447 0.501236
vt 0.733146 0.482856
vt 0.698997 0.474234
vt 0.667512 0.470971
vt 0.638978 0.471805
vt 0.611827 0.475416
vt 0.582946 0.478634
vt 0.554566 0.479312
vt 0.531808 0.484813
vt 0.509304 0.492381
vt 0.485944 0.501813
vt 0.753193 0.530774
vt 0.725740 0.512766
vt 0.697722 0.502335
vt 0.669638 0.496299
vt 0.642049 0.495020
vt 0.615883 0.498288
vt 0.589477 0.501362
vt 0.564103 0.504822
vt 0.540719 0.510738
vt 0.517519 0.519027
vt 0.493946 0.528677
vt 0.705066 0.285166
vt 0.752519 0.276871
vt 0.705925 0.246858
vt 0.692269 0.198810
vt 0.749814 0.170982
vt 0.750978 0.244764
vt 0.816539 0.338346
vt 0.828048 0.427676
vt 0.823710 0.492813
vt 0.812092 0.539395
vt 0.796792 0.566773
vt 0.806574 0.261959
vt 0.799980 0.149100
vt 0.801879 0.231841
vt 0.874855 0.385636
vt 0.875888 0.511574
vt 0.867423 0.539198
vt 0.858347 0.587421
vt 0.851992 0.617239
vt 0.863813 0.279603
vt 0.883376 0.246534
vt 0.920998 0.438649
vt 0.921562 0.514380
vt 0.910610 0.583259
vt 0.900970 0.626271
vt 0.895683 0.674536
vt 0.902055 0.302177
vt 0.387235 0.486077
vt 0.381106 0.463197
vt 0.396276 0.508857
vt 0.407125 0.530787
vt 0.418753 0.551665
vt 0.859847 0.259317
vt 0.880901 0.270924
vt 0.234306 0.568537
vt 0.285644 0.554859
vt 0.272420 0.630306
vt 0.225205 0.643007
vt 0.313588 0.604237
vt 0.307301 0.641714
vt 0.340018 0.622738
vt 0.337278 0.648220
vt 0.367561 0.632464
vt 0.364514 0.652737
vt 0.396153 0.635977
vt 0.391989 0.654222
vt 0.428186 0.638900
vt 0.424412 0.655181
vt 0.462264 0.632977
vt 0.454867 0.653595
vt 0.484574 0.635199
vt 0.477710 0.656357
vt 0.507621 0.637872
vt 0.499447 0.659410
vt 0.532233 0.641694
vt 0.523064 0.663539
vt 0.266590 0.680562
vt 0.225505 0.699121
vt 0.302260 0.675188
vt 0.333289 0.673597
vt 0.361088 0.673956
vt 0.388049 0.674597
vt 0.419232 0.674526
vt 0.448860 0.673700
vt 0.471294 0.675865
vt 0.492625 0.679722
vt 0.515973 0.685183
vt 0.270425 0.716778
vt 0.236587 0.737731
vt 0.302157 0.705250
vt 0.331479 0.698897
vt 0.359054 0.696526
vt 0.385503 0.696708
vt 0.414324 0.696633
vt 0.442828 0.693988
vt 0.465276 0.696375
vt 0.486810 0.701055
vt 0.509494 0.707695
vt 0.280128 0.744257
vt 0.255586 0.763906
vt 0.305869 0.731650
vt 0.332295 0.722998
vt 0.358515 0.718693
vt 0.384364 0.718647
vt 0.410486 0.718606
vt 0.435913 0.718507
vt 0.458917 0.720964
vt 0.481452 0.726172
vt 0.504410 0.733622
vt 0.233578 0.523712
vt 0.279501 0.526145
vt 0.274756 0.489407
vt 0.231822 0.492920
vt 0.223388 0.422185
vt 0.281216 0.442720
vt 0.175542 0.674038
vt 0.179070 0.589178
vt 0.185325 0.734916
vt 0.200493 0.777701
vt 0.217493 0.802003
vt 0.181318 0.516489
vt 0.181873 0.487735
vt 0.172125 0.411008
vt 0.137894 0.757545
vt 0.127522 0.638895
vt 0.148428 0.782837
vt 0.161576 0.827573
vt 0.170578 0.855135
vt 0.128098 0.539309
vt 0.105438 0.513167
vt 0.093933 0.764153
vt 0.087541 0.692593
vt 0.110644 0.828382
vt 0.123578 0.868456
vt 0.137338 0.913262
vt 0.093327 0.562261
vt 0.603664 0.660901
vt 0.600923 0.682924
vt 0.595060 0.705209
vt 0.586890 0.726874
vt 0.577281 0.747189
vt 0.129619 0.520919
vt 0.110980 0.533584
vt 0.678545 0.308330
vt 0.658267 0.355997
vt 0.638886 0.374675
vt 0.616759 0.385199
vt 0.593399 0.385545
vt 0.567997 0.378893
vt 0.534499 0.369665
vt 0.721259 0.527739
vt 0.745514 0.544588
vt 0.696027 0.518144
vt 0.670123 0.513255
vt 0.644847 0.512793
vt 0.620938 0.516563
vt 0.598996 0.525654
vt 0.577147 0.536508
vt 0.553292 0.546607
vt 0.526888 0.554154
vt 0.499514 0.557673
vt 0.680820 0.282385
vt 0.734884 0.143546
vt 0.671204 0.190187
vt 0.680052 0.247077
vt 0.784848 0.582004
vt 0.866917 0.084305
vt 0.181053 0.388229
vt 0.834871 0.638725
vt 0.950380 0.246409
vt 0.988275 0.516212
vt 0.987753 0.440811
vt 0.976973 0.585059
vt 0.968229 0.628179
vt 0.912376 0.698676
vt 0.968637 0.305043
vt 0.931163 0.282124
vt 0.562335 0.607026
vt 0.372460 0.460497
vt 0.378072 0.488382
vt 0.387695 0.512893
vt 0.399278 0.536412
vt 0.416356 0.559713
vt 0.947495 0.272685
vt 0.926931 0.259837
vt 0.556240 0.602657
vt 0.451640 0.422113
vt 0.473501 0.416015
vt 0.494554 0.410372
vt 0.516275 0.405225
vt 0.524128 0.368160
vt 0.512130 0.625906
vt 0.533397 0.629366
vt 0.491535 0.622845
vt 0.469987 0.620130
vt 0.787338 0.123997
vt 0.102177 0.359919
vt 0.420801 0.403860
vt 0.426299 0.398219
vt 0.446960 0.590387
vt 0.456533 0.587559
vt 0.299966 0.521091
vt 0.296645 0.486635
vt 0.047728 0.521657
vt 0.072153 0.528543
vt 0.053352 0.541423
vt 0.070330 0.547194
vt 0.502293 0.765130
vt 0.582412 0.756658
vt 0.596914 0.732740
vt 0.606353 0.709190
vt 0.612599 0.684531
vt 0.613626 0.656884
vt 0.035385 0.569541
vt 0.029146 0.699523
vt 0.064018 0.874345
vt 0.121181 0.936196
vt 0.187760 0.871098
vt 0.052134 0.834574
vt 0.035309 0.770706
vt 0.229567 0.812695
vt 0.232344 0.398922
vt 0.264325 0.774140
vt 0.298335 0.430477
vt 0.305121 0.545972
vt 0.475570 0.763648
vt 0.449515 0.758275
vt 0.425653 0.750495
vt 0.403644 0.742193
vt 0.381656 0.736117
vt 0.358400 0.735155
vt 0.334275 0.738030
vt 0.309905 0.744931
vt 0.286359 0.756061
vt 0.416528 0.603223
vt 0.393153 0.612086
vt 0.370772 0.613795
vt 0.348624 0.606279
vt 0.328026 0.590943
vt 0.428956 0.991021
vt 0.391806 0.991104
vt 0.388549 0.713546
vt 0.425680 0.713296
vt 0.353881 0.991169
vt 0.350626 0.713753
vt 0.382592 0.377310
vt 0.419737 0.376797
vt 0.344675 0.377730
vt 0.369492 0.002745
vt 0.406632 0.001992
vt 0.331583 0.003362
vt 0.173312 0.001998
vt 0.205283 0.002111
vt 0.202098 0.281418
vt 0.170145 0.281166
vt 0.196280 0.620357
vt 0.164312 0.619870
vt 0.143129 0.001992
vt 0.139965 0.281044
vt 0.183276 0.997474
vt 0.151313 0.996779
vt 0.134136 0.619574
vt 0.121141 0.996322
vt 0.017412 0.997776
vt 0.000969 0.998008
vt 0.036353 0.720283
vt 0.052773 0.719500
vt 0.064783 0.383784
vt 0.081130 0.382152
vt 0.033883 0.997561
vt 0.069232 0.718759
vt 0.052634 0.008979
vt 0.068873 0.006543
vt 0.097538 0.380601
vt 0.050397 0.997356
vt 0.085744 0.718048
vt 0.085194 0.004223
vt 0.114014 0.379109
vt 0.101600 0.001992
vt 0.211594 0.001992
vt 0.227936 0.002212
vt 0.263586 0.280150
vt 0.247255 0.279408
vt 0.244289 0.002438
vt 0.279916 0.280922
vt 0.292107 0.616973
vt 0.275827 0.615431
vt 0.260669 0.002674
vt 0.296265 0.281725
vt 0.308369 0.618583
vt 0.280144 0.992102
vt 0.263950 0.989799
vt 0.324633 0.620256
vt 0.296301 0.994506
vt 0.312444 0.997004
vt 0.483923 0.074735
vt 0.467517 0.081216
vt 0.468287 0.043734
vt 0.484208 0.042772
vt 0.451197 0.083036
vt 0.452045 0.043202
vt 0.469080 0.005082
vt 0.485224 0.012601
vt 0.434957 0.079113
vt 0.435334 0.041973
vt 0.452923 0.001992
vt 0.436729 0.004063
vn 0.077581 0.022367 -0.996735
vn 0.082281 0.030452 -0.996144
vn 0.064868 0.029036 -0.997471
vn 0.386520 -0.047478 -0.921058
vn 0.051813 0.028957 -0.998237
vn 0.423787 -0.204046 -0.882479
vn 0.048010 0.021561 -0.998614
vn 0.352341 -0.492263 -0.795948
vn -0.067285 -0.000266 -0.997734
vn 0.145370 -0.724658 -0.673601
vn -0.409065 -0.040653 -0.911599
vn -0.210541 -0.882578 -0.420391
vn -0.538494 -0.100402 -0.836626
vn -0.540276 -0.776302 -0.324740
vn -0.341402 -0.183678 -0.921796
vn -0.430416 -0.809402 -0.399512
vn 0.012273 -0.180462 -0.983505
vn 0.015545 -0.646015 -0.763166
vn 0.312946 -0.136679 -0.939885
vn 0.265274 -0.596409 -0.757579
vn 0.467047 -0.063491 -0.881950
vn 0.365789 -0.618357 -0.695581
vn 0.095366 0.032893 -0.994899
vn 0.063209 0.040383 -0.997183
vn 0.044080 0.033677 -0.998460
vn 0.036317 0.020248 -0.999135
vn -0.047728 0.023894 -0.998575
vn -0.360342 0.070664 -0.930140
vn -0.525539 0.107411 -0.843962
vn -0.340262 0.122119 -0.932367
vn 0.015668 0.147986 -0.988865
vn 0.306954 0.161338 -0.937950
vn 0.456728 0.096725 -0.884333
vn 0.097237 0.008328 -0.995226
vn 0.057914 0.026598 -0.997967
vn 0.034001 0.022432 -0.999170
vn 0.024817 0.010616 -0.999636
vn -0.012613 0.023612 -0.999642
vn -0.249616 0.121006 -0.960755
vn -0.436623 0.270822 -0.857914
vn -0.293721 0.386670 -0.874193
vn 0.014642 0.447825 -0.894001
vn 0.251329 0.433795 -0.865249
vn 0.380419 0.263874 -0.886370
vn 0.343747 0.342939 -0.874203
vn 0.213922 0.369758 -0.904166
vn 0.149554 0.467813 -0.871082
vn 0.114778 0.533398 -0.838041
vn 0.072304 0.603779 -0.793866
vn -0.052474 0.742850 -0.667398
vn -0.192230 0.826109 -0.529709
vn -0.138851 0.871731 -0.469900
vn 0.004962 0.892054 -0.451901
vn 0.118811 0.883676 -0.452771
vn 0.213015 0.769908 -0.601553
vn 0.493436 0.041575 -0.868788
vn 0.081145 0.019684 -0.996508
vn 0.405568 0.142883 -0.902829
vn 0.587830 -0.270920 -0.762272
vn 0.203595 -0.421712 -0.883577
vn 0.068715 -0.005068 -0.997624
vn 0.034074 -0.017797 -0.999261
vn 0.114506 0.018054 -0.993259
vn 0.142219 0.005278 -0.989821
vn 0.143322 -0.034713 -0.989067
vn 0.516058 0.390789 -0.762212
vn 0.011485 0.001578 -0.999933
vn -0.100835 -0.307164 -0.946299
vn -0.012627 -0.042513 -0.999016
vn -0.021452 -0.037096 -0.999081
vn -0.015459 -0.002568 -0.999877
vn 0.046218 -0.014509 -0.998826
vn 0.038857 -0.009637 -0.999198
vn 0.397456 0.448262 -0.800681
vn -0.084641 -0.081442 -0.993078
vn -0.236338 -0.131341 -0.962753
vn -0.233013 -0.048980 -0.971240
vn -0.223339 -0.008018 -0.974708
vn -0.211133 0.009871 -0.977408
vn -0.176316 0.121550 -0.976800
vn 0.107623 0.436300 -0.893342
vn -0.220647 -0.162659 -0.961695
vn 0.560912 -0.042646 -0.826776
vn 0.337307 -0.807599 -0.483744
vn 0.550743 0.076253 -0.831185
vn 0.476558 0.205957 -0.854678
vn 0.293772 0.722036 -0.626388
vn -0.106062 0.057347 -0.992705
vn -0.264816 -0.090587 -0.960035
vn -0.018468 0.050198 0.998569
vn 0.265422 -0.014510 0.964023
vn -0.031514 0.058370 0.997798
vn -0.009656 0.056678 0.998346
vn 0.296873 -0.159918 0.941431
vn -0.051078 0.062658 0.996727
vn 0.239321 -0.437594 0.866739
vn -0.064571 0.062336 0.995964
vn 0.065736 -0.658822 0.749421
vn -0.156024 0.051753 0.986397
vn -0.244735 -0.837904 0.487875
vn -0.450964 0.010816 0.892477
vn -0.565477 -0.743373 0.357257
vn -0.590157 -0.061023 0.804979
vn -0.461689 -0.765001 0.449019
vn -0.422503 -0.133693 0.896447
vn -0.048931 -0.580696 0.812649
vn -0.061910 -0.126403 0.990045
vn 0.227976 -0.530621 0.816375
vn 0.268818 -0.077560 0.960063
vn 0.340925 -0.586047 0.735064
vn 0.440037 0.000532 0.897979
vn -0.024519 0.072593 0.997060
vn 0.008533 0.060636 0.998124
vn -0.051656 0.073395 0.995964
vn -0.068913 0.069185 0.995221
vn -0.138193 0.075970 0.987487
vn -0.416968 0.104529 0.902890
vn -0.586753 0.117601 0.801181
vn -0.429921 0.127186 0.893864
vn -0.056203 0.161424 0.985283
vn 0.272248 0.185072 0.944261
vn 0.434883 0.138913 0.889708
vn -0.021734 0.065105 0.997642
vn 0.017475 0.043040 0.998921
vn -0.053824 0.068587 0.996192
vn -0.073751 0.064167 0.995210
vn -0.111323 0.074917 0.990956
vn -0.325862 0.151263 0.933238
vn -0.512590 0.276977 0.812733
vn -0.387797 0.390234 0.835063
vn -0.052792 0.462984 0.884793
vn 0.227913 0.455938 0.860335
vn 0.366844 0.297315 0.881493
vn 0.133865 0.377580 0.916250
vn 0.255112 0.346221 0.902801
vn 0.070073 0.484657 0.871893
vn 0.031392 0.559445 0.828273
vn -0.011389 0.631808 0.775041
vn -0.119825 0.762012 0.636380
vn -0.245535 0.844049 0.476753
vn -0.193318 0.891206 0.410342
vn -0.031188 0.918198 0.394891
vn 0.104933 0.913356 0.393408
vn 0.195206 0.825626 0.529373
vn -0.018985 0.049499 0.998594
vn 0.364083 0.069759 0.928751
vn 0.276698 0.168135 0.946134
vn -0.019512 0.050083 0.998554
vn 0.128173 -0.331330 0.934768
vn 0.461153 -0.206619 0.862929
vn 0.018379 0.043786 0.998872
vn -0.070461 0.001425 0.997514
vn 0.045672 0.035311 0.998332
vn 0.051390 0.005711 0.998662
vn 0.414759 0.387518 0.823289
vn -0.096708 0.027249 0.994940
vn -0.089652 0.053800 0.994519
vn -0.149455 -0.179526 0.972334
vn -0.112662 0.030612 0.993162
vn -0.112345 -0.015324 0.993551
vn -0.059860 0.028431 0.997802
vn -0.069506 0.042877 0.996660
vn 0.255298 0.448936 0.856317
vn -0.178048 -0.062531 0.982033
vn -0.274623 -0.044064 0.960542
vn -0.252913 0.030099 0.967021
vn -0.247399 -0.008615 0.968875
vn -0.248798 0.053401 0.967082
vn -0.221070 0.161719 0.961756
vn 0.057842 0.427096 0.902354
vn -0.227288 -0.092755 0.969400
vn 0.327968 -0.788577 0.520176
vn 0.562667 0.020906 0.826420
vn 0.557168 0.121342 0.821487
vn 0.490679 0.238522 0.838058
vn 0.285214 0.786145 0.548297
vn -0.199172 0.089046 0.975910
vn -0.227245 -0.038016 0.973095
vn 0.976803 -0.205030 0.061799
vn 0.857186 -0.510962 0.064427
vn 0.517543 -0.853933 0.054303
vn 0.264769 -0.963404 0.041840
vn 0.008009 -0.999520 0.029937
vn -0.368653 -0.929352 0.020017
vn -0.411700 -0.911125 0.018841
vn 0.441494 0.897082 0.018115
vn 0.601739 0.797879 0.036056
vn 0.272283 0.962213 -0.002903
vn 0.192549 0.981204 -0.012790
vn 0.121047 0.992435 -0.020520
vn 0.086727 0.995918 -0.025026
vn 0.041841 0.998731 -0.028029
vn 0.004405 0.999556 -0.029474
vn 0.004066 0.999557 -0.029490
vn 0.004304 0.999555 -0.029510
vn 0.003606 0.999557 -0.029561
vn 0.996418 0.067417 0.051053
vn 0.361943 -0.931128 0.044706
vn 0.882968 -0.466163 0.055309
vn 0.926620 0.374453 0.034065
vn 0.680929 0.731527 0.034692
vn -0.822590 -0.566043 -0.054233
vn 0.507604 -0.860136 0.050047
vn 0.730403 0.682803 0.017068
vn -0.892768 -0.440999 -0.092117
vn -0.991823 0.038259 -0.121753
vn -0.984995 -0.128137 -0.115610
vn -0.983445 0.139829 -0.115255
vn -0.917255 0.386139 -0.097678
vn -0.472743 0.881181 -0.005840
vn -0.960775 -0.252054 -0.115673
vn -0.709269 -0.704722 -0.017427
vn -0.004013 -0.999582 0.028637
vn 0.124263 -0.991824 0.029055
vn 0.998066 0.062121 -0.002173
vn 0.998067 0.062094 -0.002716
vn 0.997856 0.064901 0.008452
vn 0.146684 0.988807 -0.027270
vn -0.911986 -0.210276 -0.352230
vn -0.975656 0.213620 -0.049626
vn -0.985887 -0.167022 -0.011448
vn -0.919299 -0.193328 0.342802
vn -0.074569 -0.052859 0.995814
vn 0.237796 -0.007922 0.971283
vn 0.906964 0.065400 0.416101
vn 0.995039 0.098874 0.011025
vn -0.911474 -0.208206 -0.354775
vn 0.011500 -0.079473 -0.996771
vn 0.295004 -0.036666 -0.954792
vn 0.914683 0.052081 -0.400802
vn -0.994463 -0.103985 -0.015157
vn -0.924937 -0.090713 0.369138
vn -0.059841 0.009632 0.998161
vn 0.249191 0.041118 0.967581
vn 0.915127 0.100142 0.390531
vn 0.994609 0.102921 0.012671
vn -0.913076 -0.101586 -0.394933
vn 0.028812 -0.012215 -0.999510
vn 0.308007 0.017323 -0.951227
vn 0.921822 0.089082 -0.377237
vn -0.999533 -0.023261 -0.019816
vn -0.926369 -0.020374 0.376065
vn -0.058962 0.003296 0.998255
vn 0.248556 0.010019 0.968566
vn 0.920312 0.021421 0.390598
vn 0.999599 0.022480 0.017224
vn -0.912293 -0.022725 -0.408907
vn 0.037391 -0.002276 -0.999298
vn 0.315062 0.003894 -0.949063
vn 0.930372 0.018489 -0.366152
vn -0.999676 -0.013064 -0.021869
vn -0.925618 -0.014831 0.378168
vn -0.067764 -0.093116 0.993347
vn 0.237660 -0.098065 0.966385
vn 0.921977 -0.076736 0.379564
vn 0.996525 -0.080811 0.020207
vn -0.904643 -0.012773 -0.425979
vn 0.031729 -0.092499 -0.995207
vn 0.307867 -0.093825 -0.946792
vn 0.929217 -0.075618 -0.361714
vn -0.142485 -0.989759 0.008657
vn -0.143266 -0.989647 0.008624
s 1
g pPlane2
usemtl lambert4SG
f 131/1/1 134/2/2 133/3/3 132/4/4
f 132/4/4 133/3/3 136/5/5 135/6/6
f 135/6/6 136/5/5 138/7/7 137/8/8
f 137/8/8 138/7/7 140/9/9 139/10/10
f 139/10/10 140/9/9 142/11/11 141/12/12
f 141/12/12 142/11/11 144/13/13 143/14/14
f 143/14/14 144/13/13 146/15/15 145/16/16
f 145/16/16 146/15/15 148/17/17 147/18/18
f 147/18/18 148/17/17 150/19/19 149/20/20
f 149/20/20 150/19/19 152/21/21 151/22/22
f 134/2/2 154/23/23 153/24/24 133/3/3
f 133/3/3 153/24/24 155/25/25 136/5/5
f 136/5/5 155/25/25 156/26/26 138/7/7
f 138/7/7 156/26/26 157/27/27 140/9/9
f 140/9/9 157/27/27 158/28/28 142/11/11
f 142/11/11 158/28/28 159/29/29 144/13/13
f 144/13/13 159/29/29 160/30/30 146/15/15
f 146/15/15 160/30/30 161/31/31 148/17/17
f 148/17/17 161/31/31 162/32/32 150/19/19
f 150/19/19 162/32/32 163/33/33 152/21/21
f 154/23/23 165/34/34 164/35/35 153/24/24
f 153/24/24 164/35/35 166/36/36 155/25/25
f 155/25/25 166/36/36 167/37/37 156/26/26
f 156/26/26 167/37/37 168/38/38 157/27/27
f 157/27/27 168/38/38 169/39/39 158/28/28
f 158/28/28 169/39/39 170/40/40 159/29/29
f 159/29/29 170/40/40 171/41/41 160/30/30
f 160/30/30 171/41/41 172/42/42 161/31/31
f 161/31/31 172/42/42 173/43/43 162/32/32
f 162/32/32 173/43/43 174/44/44 163/33/33
f 165/34/34 176/45/45 175/46/46 164/35/35
f 164/35/35 175/46/46 177/47/47 166/36/36
f 166/36/36 177/47/47 178/48/48 167/37/37
f 167/37/37 178/48/48 179/49/49 168/38/38
f 168/38/38 179/49/49 180/50/50 169/39/39
f 169/39/39 180/50/50 181/51/51 170/40/40
f 170/40/40 181/51/51 182/52/52 171/41/41
f 171/41/41 182/52/52 183/53/53 172/42/42
f 172/42/42 183/53/53 184/54/54 173/43/43
f 173/43/43 184/54/54 185/55/55 174/44/44
f 132/4/4 187/56/56 186/57/57 131/1/1
f 189/58/58 191/59/59 190/60/60 188/61/61
f 131/1/1 193/62/62 192/63/63 134/2/2
f 134/2/2 192/63/63 194/64/64 154/23/23
f 154/23/23 194/64/64 195/65/65 165/34/34
f 165/34/34 195/65/65 196/66/66 176/45/45
f 197/67/67 193/62/62 131/1/1 186/57/57
f 190/60/60 199/68/68 198/69/69 188/61/61
f 193/62/62 201/70/70 200/71/71 192/63/63
f 192/63/63 200/71/71 202/72/72 194/64/64
f 194/64/64 202/72/72 203/73/73 195/65/65
f 195/65/65 203/73/73 204/74/74 196/66/66
f 197/67/67 205/75/75 201/70/70 193/62/62
f 199/68/68 206/76/76 198/69/69
f 201/70/70 208/77/77 207/78/78 200/71/71
f 200/71/71 207/78/78 209/79/79 202/72/72
f 202/72/72 209/79/79 210/80/80 203/73/73
f 203/73/73 210/80/80 211/81/81 204/74/74
f 205/75/75 212/82/82 208/77/77 201/70/70
f 152/21/21 214/83/83 213/84/84 151/22/22
f 163/33/33 215/85/85 214/83/83 152/21/21
f 174/44/44 216/86/86 215/85/85 163/33/33
f 185/55/55 217/87/87 216/86/86 174/44/44
f 218/88/88 219/89/89 205/75/75 197/67/67
f 206/76/76 218/88/88 197/67/67 198/69/69
f 188/61/61 198/69/69 197/67/67 186/57/57
f 187/56/56 189/58/58 188/61/61 186/57/57
f 1/90/90 2/91/91 13/92/92 12/93/93
f 2/91/91 3/94/94 14/95/95 13/92/92
f 3/94/94 4/96/96 15/97/97 14/95/95
f 4/96/96 5/98/98 16/99/99 15/97/97
f 5/98/98 6/100/100 17/101/101 16/99/99
f 6/100/100 7/102/102 18/103/103 17/101/101
f 7/102/102 8/104/104 19/105/105 18/103/103
f 8/104/104 9/106/106 20/107/107 19/105/105
f 9/106/106 10/108/108 21/109/109 20/107/107
f 10/108/108 11/110/110 22/111/111 21/109/109
f 12/93/93 13/92/92 24/112/112 23/113/113
f 13/92/92 14/95/95 25/114/114 24/112/112
f 14/95/95 15/97/97 26/115/115 25/114/114
f 15/97/97 16/99/99 27/116/116 26/115/115
f 16/99/99 17/101/101 28/117/117 27/116/116
f 17/101/101 18/103/103 29/118/118 28/117/117
f 18/103/103 19/105/105 30/119/119 29/118/118
f 19/105/105 20/107/107 31/120/120 30/119/119
f 20/107/107 21/109/109 32/121/121 31/120/120
f 21/109/109 22/111/111 33/122/122 32/121/121
f 23/113/113 24/112/112 35/123/123 34/124/124
f 24/112/112 25/114/114 36/125/125 35/123/123
f 25/114/114 26/115/115 37/126/126 36/125/125
f 26/115/115 27/116/116 38/127/127 37/126/126
f 27/116/116 28/117/117 39/128/128 38/127/127
f 28/117/117 29/118/118 40/129/129 39/128/128
f 29/118/118 30/119/119 41/130/130 40/129/129
f 30/119/119 31/120/120 42/131/131 41/130/130
f 31/120/120 32/121/121 43/132/132 42/131/131
f 32/121/121 33/122/122 44/133/133 43/132/132
f 34/124/124 35/123/123 46/134/134 45/135/135
f 35/123/123 36/125/125 47/136/136 46/134/134
f 36/125/125 37/126/126 48/137/137 47/136/136
f 37/126/126 38/127/127 49/138/138 48/137/137
f 38/127/127 39/128/128 50/139/139 49/138/138
f 39/128/128 40/129/129 51/140/140 50/139/139
f 40/129/129 41/130/130 52/141/141 51/140/140
f 41/130/130 42/131/131 53/142/142 52/141/141
f 42/131/131 43/132/132 54/143/143 53/142/142
f 43/132/132 44/133/133 55/144/144 54/143/143
f 2/91/91 1/90/90 88/145/145 89/146/146
f 57/147/147 56/148/148 58/149/149 59/150/150
f 1/90/90 12/93/93 61/151/151 60/152/152
f 12/93/93 23/113/113 62/153/153 61/151/151
f 23/113/113 34/124/124 63/154/154 62/153/153
f 34/124/124 45/135/135 64/155/155 63/154/154
f 87/156/156 88/145/145 1/90/90 60/152/152
f 58/149/149 56/148/148 65/157/157 66/158/158
f 60/152/152 61/151/151 68/159/159 67/160/160
f 61/151/151 62/153/153 69/161/161 68/159/159
f 62/153/153 63/154/154 70/162/162 69/161/161
f 63/154/154 64/155/155 71/163/163 70/162/162
f 87/156/156 60/152/152 67/160/160 72/164/164
f 66/158/158 65/157/157 85/165/165
f 67/160/160 68/159/159 75/166/166 74/167/167
f 68/159/159 69/161/161 76/168/168 75/166/166
f 69/161/161 70/162/162 77/169/169 76/168/168
f 70/162/162 71/163/163 78/170/170 77/169/169
f 72/164/164 67/160/160 74/167/167 79/171/171
f 22/111/111 11/110/110 80/172/172 81/173/173
f 33/122/122 22/111/111 81/173/173 82/174/174
f 44/133/133 33/122/122 82/174/174 83/175/175
f 55/144/144 44/133/133 83/175/175 84/176/176
f 86/177/177 87/156/156 72/164/164 73/178/178
f 85/165/165 65/157/157 87/156/156 86/177/177
f 56/148/148 88/145/145 87/156/156 65/157/157
f 89/146/146 88/145/145 56/148/148 57/147/147
f 2/91/91 90/260/179 91/274/180 3/94/94
f 3/94/94 91/274/180 92/273/181 4/96/96
f 4/96/96 92/273/181 93/272/182 5/98/98
f 5/98/98 93/272/182 94/271/183 6/100/100
f 6/100/100 94/271/183 95/270/184 7/102/102
f 7/102/102 95/270/184 96/235/185 8/104/104
f 46/134/134 98/269/186 99/258/187 45/135/135
f 47/136/136 100/268/188 98/269/186 46/134/134
f 48/137/137 101/267/189 100/268/188 47/136/136
f 49/138/138 102/266/190 101/267/189 48/137/137
f 50/139/139 103/265/191 102/266/190 49/138/138
f 51/140/140 104/264/192 103/265/191 50/139/139
f 52/141/141 105/263/193 104/264/192 51/140/140
f 53/142/142 106/262/194 105/263/193 52/141/141
f 54/143/143 107/261/195 106/262/194 53/142/142
f 55/144/144 108/243/196 107/261/195 54/143/143
f 89/146/146 109/237/197 90/260/179 2/91/91
f 58/149/149 111/257/198 112/259/199 59/150/150
f 59/150/150 112/259/199 110/238/200 57/147/147
f 45/135/135 99/258/187 113/256/201 64/155/155
f 66/158/158 114/232/202 260/203/203
f 64/155/155 113/256/201 115/253/204 71/163/163
f 85/165/165 117/239/205 114/232/202 66/158/158
f 75/166/166 118/255/206 119/250/207 74/167/167
f 76/168/168 120/254/208 118/255/206 75/166/166
f 77/169/169 121/251/209 120/254/208 76/168/168
f 71/163/163 115/253/204 122/252/210 78/170/170
f 78/170/170 122/252/210 121/251/209 77/169/169
f 74/167/167 119/250/207 123/249/211 79/171/171
f 79/171/171 123/249/211 116/242/212 72/164/164
f 11/110/110 97/213/213 124/248/214 80/172/172
f 80/172/172 124/248/214 125/247/215 81/173/173
f 81/173/173 125/247/215 126/246/216 82/174/174
f 82/174/174 126/246/216 127/245/217 83/175/175
f 83/175/175 127/245/217 128/244/218 84/176/176
f 84/176/176 128/244/218 108/243/196 55/144/144
f 72/164/164 116/242/212 130/241/219 73/178/178
f 73/178/178 130/241/219 129/240/220 86/177/177
f 86/177/177 129/240/220 117/239/205 85/165/165
f 57/147/147 110/238/200 109/237/197 89/146/146
f 90/179/179 132/4/4 135/6/6 91/180/180
f 91/180/180 135/6/6 137/8/8 92/181/181
f 92/181/181 137/8/8 139/10/10 93/182/182
f 93/182/182 139/10/10 141/12/12 94/183/183
f 94/183/183 141/12/12 143/14/14 95/184/184
f 95/184/184 143/14/14 145/16/16 96/185/185
f 98/186/186 175/46/46 176/45/45 99/187/187
f 100/188/188 177/47/47 175/46/46 98/186/186
f 101/189/189 178/48/48 177/47/47 100/188/188
f 102/190/190 179/49/49 178/48/48 101/189/189
f 103/191/191 180/50/50 179/49/49 102/190/190
f 104/192/192 181/51/51 180/50/50 103/191/191
f 105/193/193 182/52/52 181/51/51 104/192/192
f 106/194/194 183/53/53 182/52/52 105/193/193
f 107/195/195 184/54/54 183/53/53 106/194/194
f 108/196/196 185/55/55 184/54/54 107/195/195
f 109/197/197 187/56/56 132/4/4 90/179/179
f 111/198/198 190/60/60 191/59/59 112/199/199
f 112/199/199 191/59/59 189/58/58 110/200/200
f 99/187/187 176/45/45 196/66/66 113/201/201
f 114/202/202 199/68/68 260/231/203
f 113/201/201 196/66/66 204/74/74 115/204/204
f 117/205/205 206/76/76 199/68/68 114/202/202
f 118/206/206 207/78/78 208/77/77 119/207/207
f 120/208/208 209/79/79 207/78/78 118/206/206
f 121/209/209 210/80/80 209/79/79 120/208/208
f 115/204/204 204/74/74 211/81/81 122/210/210
f 122/210/210 211/81/81 210/80/80 121/209/209
f 119/207/207 208/77/77 212/82/82 123/211/211
f 123/211/211 212/82/82 205/75/75 116/212/212
f 97/233/213 151/22/22 213/84/84 124/214/214
f 124/214/214 213/84/84 214/83/83 125/215/215
f 125/215/215 214/83/83 215/85/85 126/216/216
f 126/216/216 215/85/85 216/86/86 127/217/217
f 127/217/217 216/86/86 217/87/87 128/218/218
f 128/218/218 217/87/87 185/55/55 108/196/196
f 116/212/212 205/75/75 219/89/89 130/219/219
f 130/219/219 219/89/89 218/88/88 129/220/220
f 129/220/220 218/88/88 206/76/76 117/205/205
f 110/200/200 189/58/58 187/56/56 109/197/197
f 8/104/104 96/235/185 221/236/221 220/230/222
f 9/106/106 8/104/104 220/230/222 222/229/223
f 10/108/108 9/106/106 222/229/223 223/227/224
f 97/213/213 11/110/110 225/228/225 224/221/226
f 11/110/110 10/108/108 223/227/224 225/228/225
f 96/185/185 145/16/16 226/225/227 221/226/221
f 145/16/16 147/18/18 227/224/228 226/225/227
f 147/18/18 149/20/20 228/223/229 227/224/228
f 149/20/20 151/22/22 229/222/230 228/223/229
f 151/22/22 97/233/213 224/234/226 229/222/230
usemtl lambert5SG
f 220/275/222 221/276/221 231/277/231 230/278/232
f 222/299/223 220/300/222 230/301/232 232/302/233
f 223/305/224 222/299/223 232/302/233 233/306/234
f 224/287/226 225/288/225 235/289/235 234/290/236
f 225/310/225 223/305/224 233/306/234 235/311/235
f 221/276/221 226/279/227 236/280/237 231/277/231
f 226/315/227 227/316/228 237/317/238 236/318/237
f 227/316/228 228/319/229 238/320/239 237/317/238
f 228/319/229 229/323/230 239/324/240 238/320/239
f 229/293/230 224/287/226 234/290/236 239/294/240
f 230/278/232 231/277/231 241/281/241 240/282/242
f 232/302/233 230/301/232 240/303/242 242/304/243
f 233/306/234 232/302/233 242/304/243 243/309/244
f 234/290/236 235/289/235 245/291/245 244/292/246
f 235/311/235 233/306/234 243/309/244 245/313/245
f 231/277/231 236/280/237 246/283/247 241/281/241
f 236/318/237 237/317/238 247/321/248 246/322/247
f 237/317/238 238/320/239 248/325/249 247/321/248
f 238/320/239 239/324/240 249/328/250 248/325/249
f 239/294/240 234/290/236 244/292/246 249/297/250
f 240/282/242 241/281/241 251/284/251 250/285/252
f 242/304/243 240/303/242 250/307/252 252/308/253
f 243/309/244 242/304/243 252/308/253 253/312/254
f 244/292/246 245/291/245 255/295/255 254/296/256
f 245/313/245 243/309/244 253/312/254 255/314/255
f 241/281/241 246/283/247 256/286/257 251/284/251
f 246/322/247 247/321/248 257/326/258 256/327/257
f 247/321/248 248/325/249 258/329/259 257/326/258
f 248/325/249 249/328/250 259/330/260 258/329/259
f 249/297/250 244/292/246 254/296/256 259/298/260
usemtl lambert4SG
f 260/231/203 199/68/68 190/60/60 111/198/198
f 66/158/158 260/203/203 111/257/198 58/149/149
usemtl lambert5SG
f 255/331/255 253/332/254 262/333/261 254/334/256
f 253/332/254 252/335/253 261/336/262 262/333/261
f 252/335/253 250/339/252 251/340/251 261/336/262
f 261/336/262 251/340/251 256/342/257 257/341/258
f 262/333/261 261/336/262 257/341/258 258/337/259
f 254/334/256 262/333/261 258/337/259 259/338/260
